…
mtcars <- as_tibble(mtcars)
iris <- as_tibble(iris)

arrange() 通过变量来组织行

dplyr::arrange()通过一列或多列的值来对数据框的行进行排序：

mtcars %>% arrange(cyl,disp)
>> # A tibble: 32 x 11
>>      mpg   cyl  disp    hp  drat    wt  qsec    vs    am  gear  carb
>>    <dbl> <dbl> <dbl> <dbl> <dbl> <dbl> <dbl> <dbl> <dbl> <dbl> <dbl>
>>  1  33.9     4  71.1    65  4.22  1.84  19.9     1     1     4     1
>>  2  30.4     4  75.7    52  4.93  1.62  18.5     1     1     4     2
>>  3  32.4     4  78.7    66  4.08  2.2   19.5     1     1     4     1
>>  4  27.3     4  79      66  4.08  1.94  18.9     1     1     4     1
>>  5  30.4     4  95.1   113  3.77  1.51  16.9     1     1     5     2
>>  6  22.8     4 108      93  3.85  2.32  18.6     1     1     4     1
>>  7  21.5     4 120.     97  3.7   2.46  20.0     1     0     3     1
>>  8  26       4 120.     91  4.43  2.14  16.7     0     1     5     2
>>  9  21.4     4 121     109  4.11  2.78  18.6     1     1     4     2
>> 10  22.8     4 141.     95  3.92  3.15  22.9     1     0     4     2
>> # ... with 22 more rows

desc()辅助函数可以进行降序排序：

mtcars %>% arrange(desc(cyl),desc(disp))
>> # A tibble: 32 x 11
>>      mpg   cyl  disp    hp  drat    wt  qsec    vs    am  gear  carb
>>    <dbl> <dbl> <dbl> <dbl> <dbl> <dbl> <dbl> <dbl> <dbl> <dbl> <dbl>
>>  1  10.4     8   472   205  2.93  5.25  18.0     0     0     3     4
>>  2  10.4     8   460   215  3     5.42  17.8     0     0     3     4
>>  3  14.7     8   440   230  3.23  5.34  17.4     0     0     3     4
>>  4  19.2     8   400   175  3.08  3.84  17.0     0     0     3     2
>>  5  18.7     8   360   175  3.15  3.44  17.0     0     0     3     2
>>  6  14.3     8   360   245  3.21  3.57  15.8     0     0     3     4
>>  7  15.8     8   351   264  4.22  3.17  14.5     0     1     5     4
>>  8  13.3     8   350   245  3.73  3.84  15.4     0     0     3     4
>>  9  15.5     8   318   150  2.76  3.52  16.9     0     0     3     2
>> 10  15.2     8   304   150  3.15  3.44  17.3     0     0     3     2
>> # ... with 22 more rows

在base R中可以使用[+order函数对行进行排序：

mtcars[order(mtcars$cyl,mtcars$disp),,drop= FALSE]
>> # A tibble: 32 x 11
>>      mpg   cyl  disp    hp  drat    wt  qsec    vs    am  gear  carb
>>    <dbl> <dbl> <dbl> <dbl> <dbl> <dbl> <dbl> <dbl> <dbl> <dbl> <dbl>
>>  1  33.9     4  71.1    65  4.22  1.84  19.9     1     1     4     1
>>  2  30.4     4  75.7    52  4.93  1.62  18.5     1     1     4     2
>>  3  32.4     4  78.7    66  4.08  2.2   19.5     1     1     4     1
>>  4  27.3     4  79      66  4.08  1.94  18.9     1     1     4     1
>>  5  30.4     4  95.1   113  3.77  1.51  16.9     1     1     5     2
>>  6  22.8     4 108      93  3.85  2.32  18.6     1     1     4     1
>>  7  21.5     4 120.     97  3.7   2.46  20.0     1     0     3     1
>>  8  26       4 120.     91  4.43  2.14  16.7     0     1     5     2
>>  9  21.4     4 121     109  4.11  2.78  18.6     1     1     4     2
>> 10  22.8     4 141.     95  3.92  3.15  22.9     1     0     4     2
>> # ... with 22 more rows
…
进行倒序排序，base R有两种选择：

对于数值变量可以加上负号-

在order函数中指定参数decreasing=TRUE

mtcars[order(mtcars$cyl, mtcars$disp, decreasing = TRUE), , drop = FALSE]
>> # A tibble: 32 x 11
>>      mpg   cyl  disp    hp  drat    wt  qsec    vs    am  gear  carb
>>    <dbl> <dbl> <dbl> <dbl> <dbl> <dbl> <dbl> <dbl> <dbl> <dbl> <dbl>
>>  1  10.4     8   472   205  2.93  5.25  18.0     0     0     3     4
>>  2  10.4     8   460   215  3     5.42  17.8     0     0     3     4
>>  3  14.7     8   440   230  3.23  5.34  17.4     0     0     3     4
>>  4  19.2     8   400   175  3.08  3.84  17.0     0     0     3     2
>>  5  18.7     8   360   175  3.15  3.44  17.0     0     0     3     2
>>  6  14.3     8   360   245  3.21  3.57  15.8     0     0     3     4
>>  7  15.8     8   351   264  4.22  3.17  14.5     0     1     5     4
>>  8  13.3     8   350   245  3.73  3.84  15.4     0     0     3     4
>>  9  15.5     8   318   150  2.76  3.52  16.9     0     0     3     2
>> 10  15.2     8   304   150  3.15  3.44  17.3     0     0     3     2
>> # ... with 22 more rows

###or
mtcars[order(-mtcars$cyl, -mtcars$disp), , drop = FALSE]
>> # A tibble: 32 x 11
>>      mpg   cyl  disp    hp  drat    wt  qsec    vs    am  gear  carb
>>    <dbl> <dbl> <dbl> <dbl> <dbl> <dbl> <dbl> <dbl> <dbl> <dbl> <dbl>
>>  1  10.4     8   472   205  2.93  5.25  18.0     0     0     3     4
>>  2  10.4     8   460   215  3     5.42  17.8     0     0     3     4
>>  3  14.7     8   440   230  3.23  5.34  17.4     0     0     3     4
>>  4  19.2     8   400   175  3.08  3.84  17.0     0     0     3     2
>>  5  18.7     8   360   175  3.15  3.44  17.0     0     0     3     2
>>  6  14.3     8   360   245  3.21  3.57  15.8     0     0     3     4
>>  7  15.8     8   351   264  4.22  3.17  14.5     0     1     5     4
>>  8  13.3     8   350   245  3.73  3.84  15.4     0     0     3     4
>>  9  15.5     8   318   150  2.76  3.52  16.9     0     0     3     2
>> 10  15.2     8   304   150  3.15  3.44  17.3     0     0     3     2
>> # ... with 22 more rows
…
filter()返回符合条件的行

dplyr::filter() 返回表达式是TRUE的行

starwars %>% filter(species == "Human")
>> # A tibble: 35 x 14
>>    name  height  mass hair_color skin_color eye_color birth_year sex   gender
>>    <chr>  <int> <dbl> <chr>      <chr>      <chr>          <dbl> <chr> <chr> 
>>  1 Luke~    172    77 blond      fair       blue            19   male  mascu~
>>  2 Dart~    202   136 none       white      yellow          41.9 male  mascu~
>>  3 Leia~    150    49 brown      light      brown           19   fema~ femin~
>>  4 Owen~    178   120 brown, gr~ light      blue            52   male  mascu~
>>  5 Beru~    165    75 brown      light      blue            47   fema~ femin~
>>  6 Bigg~    183    84 black      light      brown           24   male  mascu~
>>  7 Obi-~    182    77 auburn, w~ fair       blue-gray       57   male  mascu~
>>  8 Anak~    188    84 blond      fair       blue            41.9 male  mascu~
>>  9 Wilh~    180    NA auburn, g~ fair       blue            64   male  mascu~
>> 10 Han ~    180    80 brown      fair       brown           29   male  mascu~
>> # ... with 25 more rows, and 5 more variables: homeworld <chr>, species <chr>,
>> #   films <list>, vehicles <list>, starships <list>
…
在baseR中有相似功能的函数是subset

subset(starwars, species == "Human")
>> # A tibble: 35 x 14
>>    name  height  mass hair_color skin_color eye_color birth_year sex   gender
>>    <chr>  <int> <dbl> <chr>      <chr>      <chr>          <dbl> <chr> <chr> 
>>  1 Luke~    172    77 blond      fair       blue            19   male  mascu~
>>  2 Dart~    202   136 none       white      yellow          41.9 male  mascu~
>>  3 Leia~    150    49 brown      light      brown           19   fema~ femin~
>>  4 Owen~    178   120 brown, gr~ light      blue            52   male  mascu~
>>  5 Beru~    165    75 brown      light      blue            47   fema~ femin~
>>  6 Bigg~    183    84 black      light      brown           24   male  mascu~
>>  7 Obi-~    182    77 auburn, w~ fair       blue-gray       57   male  mascu~
>>  8 Anak~    188    84 blond      fair       blue            41.9 male  mascu~
>>  9 Wilh~    180    NA auburn, g~ fair       blue            64   male  mascu~
>> 10 Han ~    180    80 brown      fair       brown           29   male  mascu~
>> # ... with 25 more rows, and 5 more variables: homeworld <chr>, species <chr>,
>> #   films <list>, vehicles <list>, starships <list>

也可以使用[来选择行：

starwars[starwars$species == "Human",]
>> # A tibble: 39 x 14
>>    name  height  mass hair_color skin_color eye_color birth_year sex   gender
>>    <chr>  <int> <dbl> <chr>      <chr>      <chr>          <dbl> <chr> <chr> 
>>  1 Luke~    172    77 blond      fair       blue            19   male  mascu~
>>  2 Dart~    202   136 none       white      yellow          41.9 male  mascu~
>>  3 Leia~    150    49 brown      light      brown           19   fema~ femin~
>>  4 Owen~    178   120 brown, gr~ light      blue            52   male  mascu~
>>  5 Beru~    165    75 brown      light      blue            47   fema~ femin~
>>  6 Bigg~    183    84 black      light      brown           24   male  mascu~
>>  7 Obi-~    182    77 auburn, w~ fair       blue-gray       57   male  mascu~
>>  8 Anak~    188    84 blond      fair       blue            41.9 male  mascu~
>>  9 Wilh~    180    NA auburn, g~ fair       blue            64   male  mascu~
>> 10 Han ~    180    80 brown      fair       brown           29   male  mascu~
>> # ... with 29 more rows, and 5 more variables: homeworld <chr>, species <chr>,
>> #   films <list>, vehicles <list>, starships <list>

但是这样处理会出现NA的情况，为了避免NA，可以结合使用which：

starwars[which(starwars$species == "Human"), , drop = FALSE]
>> # A tibble: 35 x 14
>>    name  height  mass hair_color skin_color eye_color birth_year sex   gender
>>    <chr>  <int> <dbl> <chr>      <chr>      <chr>          <dbl> <chr> <chr> 
>>  1 Luke~    172    77 blond      fair       blue            19   male  mascu~
>>  2 Dart~    202   136 none       white      yellow          41.9 male  mascu~
>>  3 Leia~    150    49 brown      light      brown           19   fema~ femin~
>>  4 Owen~    178   120 brown, gr~ light      blue            52   male  mascu~
>>  5 Beru~    165    75 brown      light      blue            47   fema~ femin~
>>  6 Bigg~    183    84 black      light      brown           24   male  mascu~
>>  7 Obi-~    182    77 auburn, w~ fair       blue-gray       57   male  mascu~
>>  8 Anak~    188    84 blond      fair       blue            41.9 male  mascu~
>>  9 Wilh~    180    NA auburn, g~ fair       blue            64   male  mascu~
>> 10 Han ~    180    80 brown      fair       brown           29   male  mascu~
>> # ... with 25 more rows, and 5 more variables: homeworld <chr>, species <chr>,
>> #   films <list>, vehicles <list>, starships <list>
